<svg xmlns="http://www.w3.org/2000/svg" width="24" height="24" viewBox="0 0 24 24">
    <path fill="#375F74" fill-rule="evenodd" d="M16.667 7.333v9.334H7.333V7.333h9.334zm0-1.333H7.333C6.6 6 6 6.6 6 7.333v9.334C6 17.4 6.6 18 7.333 18h9.334C17.4 18 18 17.4 18 16.667V7.333C18 6.6 17.4 6 16.667 6z" opacity=".54"/>
</svg>
