<svg xmlns="http://www.w3.org/2000/svg" width="24" height="24" viewBox="0 0 24 24">
    <g fill="none" fill-rule="nonzero">
        <path fill="#7850DD" d="M7 10l5-5 5 5z"/>
        <path fill="#93A4AD" d="M7 14l5 5 5-5z"/>
    </g>
</svg>
